{
  "OwnerId": "2cd40d9b-e4b9-41b2-9dc9-c2e9052f4cfc",
  "ViewId": "fb4049c6-a4f2-4eef-8c4d-9784695b9b38",
  "class": "has-text-danger",
  "createdAt": "2020-12-03T22:31:29.866Z",
  "deletedAt": null,
  "id": "b5091ebe-7c00-4fda-ae3a-c346e6c2a879",
  "labelKey": "remove",
  "order": "2",
  "params": {
    "id": ":id:"
  },
  "position": null,
  "slug": null,
  "type": "delete",
  "updatedAt": "2020-12-03T22:40:35.420Z"
}