{
  "ChildViewId": null,
  "ModelFieldId": "30059280-93b5-4927-a79d-c6906085d5bc",
  "OwnerId": null,
  "ViewId": "82dd0852-c5f6-4276-ac3a-e7d69f141cc1",
  "breakAfter": null,
  "canOrderBy": null,
  "canUpdate": null,
  "class": "is-2",
  "createdAt": "2020-08-28T12:10:49.194Z",
  "deletedAt": null,
  "descriptionColumn": null,
  "filters": null,
  "findType": null,
  "format": null,
  "helperTextLabelKey": null,
  "id": "3447f54c-7faa-4e00-8394-216f2a139337",
  "include": null,
  "labelKey": "slug",
  "mask": null,
  "order": "4",
  "placeholder": null,
  "required": null,
  "updatedAt": "2020-08-28T12:10:49.194Z",
  "valueColumn": null
}