{
  "ChildViewId": null,
  "ModelFieldId": "d4f439d4-69b7-4895-8b22-e4ca715fad1a",
  "OwnerId": null,
  "ViewId": "82dd0852-c5f6-4276-ac3a-e7d69f141cc1",
  "breakAfter": null,
  "canOrderBy": null,
  "canUpdate": null,
  "class": "is-2",
  "createdAt": "2020-08-28T12:10:49.194Z",
  "deletedAt": null,
  "descriptionColumn": null,
  "filters": null,
  "findType": null,
  "format": null,
  "helperTextLabelKey": null,
  "id": "b2c202ef-243e-4097-b014-fdabeeaf9e0a",
  "include": null,
  "labelKey": "params",
  "mask": null,
  "order": "7",
  "placeholder": null,
  "required": null,
  "updatedAt": "2020-08-28T12:10:49.194Z",
  "valueColumn": null
}