{
  "ChildViewId": null,
  "ModelFieldId": "21905ce5-e500-4f34-b998-6a1e3249b582",
  "OwnerId": null,
  "ViewId": "91c6da08-a1cc-4478-be07-b78a3ab90b65",
  "breakAfter": null,
  "canOrderBy": null,
  "canUpdate": false,
  "class": "is-2",
  "createdAt": "2020-11-14T22:24:42.057Z",
  "deletedAt": null,
  "descriptionColumn": null,
  "filters": null,
  "findType": null,
  "format": null,
  "helperTextLabelKey": null,
  "id": "809f17e4-4df1-4dc4-a1c0-860b91b56c5a",
  "include": null,
  "labelKey": "createdAt",
  "mask": null,
  "order": "3",
  "placeholder": null,
  "required": null,
  "updatedAt": "2020-11-14T22:24:42.057Z",
  "valueColumn": null
}