{
  "ChildViewId": null,
  "ModelFieldId": "746d6955-0332-4055-8359-1c35fea64533",
  "OwnerId": null,
  "ViewId": "75123032-b4dc-44f9-b57f-05142e7290fb",
  "breakAfter": null,
  "canOrderBy": null,
  "canUpdate": false,
  "class": "is-2",
  "createdAt": "2020-11-14T22:24:42.057Z",
  "deletedAt": null,
  "descriptionColumn": null,
  "filters": null,
  "findType": null,
  "format": null,
  "helperTextLabelKey": null,
  "id": "cc7efbfa-7d53-4263-b10f-60f7068f7e3c",
  "include": null,
  "labelKey": "OwnerId",
  "mask": null,
  "order": "3",
  "placeholder": null,
  "required": null,
  "updatedAt": "2020-11-14T22:24:42.057Z",
  "valueColumn": null
}