{
  "ModelId": "9c16a857-9808-4de0-9362-48b29f9e5f79",
  "OwnerId": "2cd40d9b-e4b9-41b2-9dc9-c2e9052f4cfc",
  "createdAt": "2020-12-25T21:55:07.488Z",
  "default": null,
  "deletedAt": null,
  "id": "e43d299a-d9a9-4c42-b459-2a21f6584060",
  "length": null,
  "modelFieldType": "DataTypes.TEXT",
  "name": "helperTextLabelKey",
  "selectOptions": null,
  "targetModel": null,
  "targetModelAlias": null,
  "type": "text",
  "updatedAt": "2020-12-25T21:55:07.565Z"
}