{
  "ChildViewId": null,
  "ModelFieldId": "5aee05b2-a013-46fa-a52e-0d5cd89ff2d8",
  "OwnerId": "2cd40d9b-e4b9-41b2-9dc9-c2e9052f4cfc",
  "ViewId": "dddfaee7-4c57-4f72-aa3b-3a629e247b41",
  "breakAfter": false,
  "canOrderBy": false,
  "canUpdate": false,
  "class": "is-2",
  "createdAt": "2021-01-30T01:04:33.563Z",
  "deletedAt": null,
  "descriptionColumn": null,
  "filters": null,
  "findType": null,
  "format": null,
  "helperTextLabelKey": "",
  "id": "3c53b7b8-9a38-4d24-a4d5-0e186c64995d",
  "include": null,
  "labelKey": "name",
  "mask": null,
  "order": "0",
  "placeholder": null,
  "required": false,
  "updatedAt": "2021-01-30T01:24:58.801Z",
  "valueColumn": null
}