{
  "ChildViewId": null,
  "ModelFieldId": "917819a0-da74-49b0-9506-7b4a0fd23649",
  "OwnerId": "2cd40d9b-e4b9-41b2-9dc9-c2e9052f4cfc",
  "ViewId": "dddfaee7-4c57-4f72-aa3b-3a629e247b41",
  "breakAfter": false,
  "canOrderBy": false,
  "canUpdate": false,
  "class": "is-2",
  "createdAt": "2021-01-30T01:04:33.563Z",
  "deletedAt": null,
  "descriptionColumn": null,
  "filters": null,
  "findType": null,
  "format": null,
  "helperTextLabelKey": "",
  "id": "bd61b139-305e-41ab-9ee7-a027b8f49303",
  "include": null,
  "labelKey": "createdAt",
  "mask": null,
  "order": "1",
  "placeholder": null,
  "required": false,
  "updatedAt": "2021-01-30T01:24:58.801Z",
  "valueColumn": null
}