{
  "ModelId": "790a8062-854b-42a2-b13f-7559a5c6b9b0",
  "OwnerId": "2cd40d9b-e4b9-41b2-9dc9-c2e9052f4cfc",
  "createdAt": "2020-11-14T22:24:41.986Z",
  "default": null,
  "deletedAt": null,
  "id": "21905ce5-e500-4f34-b998-6a1e3249b582",
  "length": null,
  "modelFieldType": "DataTypes.DATE",
  "name": "createdAt",
  "selectOptions": null,
  "targetModel": null,
  "targetModelAlias": null,
  "type": "datetime",
  "updatedAt": "2020-11-14T22:24:42.031Z"
}