{
  "ChildViewId": null,
  "ModelFieldId": "789277ae-0670-4566-b413-3cd4d79068c0",
  "OwnerId": "2cd40d9b-e4b9-41b2-9dc9-c2e9052f4cfc",
  "ViewId": "b57ad423-68d0-4ee2-9813-fbd9cee0b2be",
  "breakAfter": null,
  "canOrderBy": null,
  "canUpdate": true,
  "class": "is-4",
  "createdAt": "2020-11-17T23:18:55.487Z",
  "deletedAt": null,
  "descriptionColumn": null,
  "filters": null,
  "findType": null,
  "format": null,
  "helperTextLabelKey": null,
  "id": "2c927940-54b8-45dd-ac8b-95777cbadd90",
  "include": null,
  "labelKey": "rule",
  "mask": null,
  "order": "0",
  "placeholder": null,
  "required": null,
  "updatedAt": "2020-11-17T23:18:55.503Z",
  "valueColumn": null
}