{
  "MenuSectionId": null,
  "ModelId": "790a8062-854b-42a2-b13f-7559a5c6b9b0",
  "OwnerId": null,
  "createdAt": "2020-11-14T22:24:42.045Z",
  "deletedAt": null,
  "filters": null,
  "id": "91c6da08-a1cc-4478-be07-b78a3ab90b65",
  "include": null,
  "key": "form-model_permission",
  "labelKey": "ModelPermission",
  "showOnMenu": false,
  "slug": "/model_permission_form",
  "type": "FormView",
  "updatedAt": "2020-11-14T22:24:42.045Z"
}