{
  "OwnerId": null,
  "ViewId": "33fb85e4-d1c8-42e5-848e-642c0da2f156",
  "class": "is-link is-light",
  "createdAt": "2020-12-03T22:31:29.883Z",
  "deletedAt": null,
  "id": "a242ccdd-4e12-47ea-9232-30cf40e1b07f",
  "labelKey": "back",
  "order": "1",
  "params": null,
  "position": "top left",
  "slug": "/menu_section",
  "type": "navigation",
  "updatedAt": "2020-12-03T22:31:29.883Z"
}