{
  "OwnerId": "2cd40d9b-e4b9-41b2-9dc9-c2e9052f4cfc",
  "ViewId": "788935e0-e9a6-49b1-ab5c-522d3e3dd9aa",
  "class": "is-link",
  "createdAt": "2020-08-28T12:10:49.111Z",
  "deletedAt": null,
  "id": "08be3322-589b-4ccd-a7d4-d4fba1fee85f",
  "labelKey": "edit",
  "order": "1",
  "params": null,
  "position": null,
  "slug": "/models_form/:id:",
  "type": "navigation",
  "updatedAt": "2020-12-25T22:00:43.871Z"
}