{
  "ModelId": "7b6a5206-e3a7-4f9f-a2bc-462253cf3b8a",
  "OwnerId": "2cd40d9b-e4b9-41b2-9dc9-c2e9052f4cfc",
  "createdAt": "2020-08-28T12:10:49.037Z",
  "default": null,
  "deletedAt": null,
  "id": "3186c2a0-c517-4743-adb9-6f561e5cc6ac",
  "length": 255,
  "modelFieldType": "DataTypes.STRING",
  "name": "labelKey",
  "selectOptions": null,
  "targetModel": null,
  "targetModelAlias": null,
  "type": "string",
  "updatedAt": "2020-11-15T05:45:43.380Z"
}