{
  "OwnerId": "2cd40d9b-e4b9-41b2-9dc9-c2e9052f4cfc",
  "createdAt": "2020-11-19T09:15:58.357Z",
  "deletedAt": null,
  "id": "805d3256-cfbc-4df2-be79-1177e6eabeb1",
  "modelName": "UserPasswordToken",
  "name": "UserPasswordToken",
  "updatedAt": "2020-11-19T09:15:58.357Z"
}