{
  "ChildViewId": null,
  "ModelFieldId": "a18efb23-2169-43e9-85e4-af33afe6e4a1",
  "OwnerId": "2cd40d9b-e4b9-41b2-9dc9-c2e9052f4cfc",
  "ViewId": "9cb74854-e757-4d4f-8925-9908db897ba3",
  "breakAfter": false,
  "canOrderBy": false,
  "canUpdate": false,
  "class": "is-2",
  "createdAt": "2020-08-28T12:10:49.144Z",
  "deletedAt": null,
  "descriptionColumn": null,
  "filters": null,
  "findType": null,
  "format": null,
  "helperTextLabelKey": "help_modelField_targetModelAlias",
  "id": "14bca2b7-53e8-45be-8000-b9f4ff9e0eb7",
  "include": null,
  "labelKey": "targetModelAlias",
  "mask": null,
  "order": "5",
  "placeholder": null,
  "required": false,
  "updatedAt": "2020-12-30T17:13:21.147Z",
  "valueColumn": null
}