{
  "ChildViewId": null,
  "ModelFieldId": "d1ad6160-cdde-4cee-b443-773956f215c7",
  "OwnerId": "2cd40d9b-e4b9-41b2-9dc9-c2e9052f4cfc",
  "ViewId": "9cb74854-e757-4d4f-8925-9908db897ba3",
  "breakAfter": false,
  "canOrderBy": false,
  "canUpdate": false,
  "class": "is-2",
  "createdAt": "2020-08-28T12:10:49.144Z",
  "deletedAt": null,
  "descriptionColumn": null,
  "filters": null,
  "findType": null,
  "format": null,
  "helperTextLabelKey": "help_modelField_selectOptions",
  "id": "dcd7ed21-07a2-4c48-b5c4-b5f9d70a7642",
  "include": null,
  "labelKey": "selectOptions",
  "mask": null,
  "order": "6",
  "placeholder": null,
  "required": false,
  "updatedAt": "2020-12-30T17:13:21.148Z",
  "valueColumn": null
}