{
  "ModelId": "5abcd236-670e-436f-81c7-3c3e44a5e270",
  "OwnerId": "2cd40d9b-e4b9-41b2-9dc9-c2e9052f4cfc",
  "createdAt": "2020-08-29T14:10:34.648Z",
  "default": null,
  "deletedAt": null,
  "id": "727ac677-bcae-444d-8fea-3d94c0f7a82b",
  "length": null,
  "modelFieldType": "DataTypes.BOOLEAN",
  "name": "hasFullAccess",
  "selectOptions": null,
  "targetModel": null,
  "targetModelAlias": null,
  "type": "boolean",
  "updatedAt": "2020-11-15T05:27:59.404Z"
}