{
  "ModelId": "5abcd236-670e-436f-81c7-3c3e44a5e270",
  "OwnerId": "2cd40d9b-e4b9-41b2-9dc9-c2e9052f4cfc",
  "createdAt": "2020-08-29T14:10:34.652Z",
  "default": null,
  "deletedAt": null,
  "id": "d1f47849-02c3-4e48-9f4b-c39afe93493d",
  "length": null,
  "modelFieldType": null,
  "name": "Users",
  "selectOptions": null,
  "targetModel": "User",
  "targetModelAlias": "User",
  "type": "hasMany",
  "updatedAt": "2020-11-15T05:27:59.413Z"
}