{
  "ModelId": "29de1456-e5c8-4086-b05e-68e581fe3734",
  "OwnerId": "2cd40d9b-e4b9-41b2-9dc9-c2e9052f4cfc",
  "createdAt": "2020-08-28T12:10:49.024Z",
  "default": null,
  "deletedAt": null,
  "id": "f6f2c905-7b70-4646-80a0-662c56d4b636",
  "length": null,
  "modelFieldType": null,
  "name": "ModelFields",
  "selectOptions": null,
  "targetModel": "ModelField",
  "targetModelAlias": "ModelField",
  "type": "hasMany",
  "updatedAt": "2020-11-17T23:15:45.096Z"
}