{
  "MenuSectionId": "8dcd077b-b723-4b33-8c80-48702c9afdf4",
  "ModelId": "9c16a857-9808-4de0-9362-48b29f9e5f79",
  "OwnerId": null,
  "createdAt": "2020-08-28T12:10:49.088Z",
  "deletedAt": null,
  "filters": null,
  "id": "8934a4e8-58f9-44ca-85ac-97843f634929",
  "include": null,
  "key": "form-viewFields",
  "labelKey": "fields",
  "showOnMenu": false,
  "slug": "",
  "type": "FormView",
  "updatedAt": "2020-12-25T21:35:36.579Z"
}