{
  "isLoading": "Loading...",
  "noResults": "This list is empty",

  "users": "Users",
  "name": "Name",
  "email": "E-mail",
  "password": "Password",
  "create": "Create",
  "save": "Save",
  "edit": "Edit",
  "back": "Back",
  "remove": "Remove",
  "language": "Language",
  "model": "Model",
  "models": "Models",
  "modelName": "Model Name (File)",
  "ModelFieldId": "Field",
  "ModelField": "Field",
  "ModelFields": "Fields",
  "views": "Views",
  "type": "Type",
  "length": "Length",
  "targetModel": "Target Model",
  "targetModelAlias": "Target Model Alias",
  "selectOptions": "Select Options (JSON)",
  "default": "Default",
  "createdAt": "Created At",
  "updatedAt": "Updated At",
  "labelKey": "Label Key",
  "slug": "Slug (URL)",
  "showOnMenu": "Show On Menu",
  "clearFilters": "Clear Filters",
  "filter": "Filter",
  "filters": "Filters",
  "filtersJSON": "View Filters (JSON)",
  "include": "View Includes (JSON)",
  "ViewFields": "View Fields",
  "ViewActions": "View Actions",
  "ViewRowActions": "View Row Actions",
  "required": "Required",
  "canUpdate": "Can Update",
  "canOrderBy": "Can Order By",
  "class": "Class",
  "order": "Order",
  "breakAfter": "Break After",
  "mask": "Mask",
  "format": "Format",
  "valueColumn": "Value Column",
  "descriptionColumn": "Description Column",
  "findType": "Find Type",
  "ChildView": "Child View",
  "key": "Key",
  "languages": "Languages",
  "ModelId": "Model",
  "params": "Parameters",
  "position": "Position",
  "abbr": "Abbreviation",
  "reviewFields": "Review the following fields:",
  "cancel": "Cancel",
  "confirm?": "Confirm?",
  "active": "Active",
  "photo": "Photo",
  "chooseFile": "Choose a file…",
  "modelBuilder": "Model Builder",
  "modelFieldType": "Model Field Type",
  "updateTables": "Update Tables (!)",
  "string": "String",
  "integer": "Integer",
  "decimal": "Decimal",
  "text": "Text",
  "json": "JSON",
  "boolean": "Boolean",
  "datetime": "Datetime",
  "hasMany": "Has Many",
  "belongsTo": "Belongs To",
  "file": "File",
  "addRow": "Add Row",
  
  "UserId": "User",
  "role": "Role",
  "RoleId": "Role",
  "Role": "Roles",
  "ModelPermission": "Model Permission",
  "ViewPermission": "View Permission",
  "action": "Action",
  
  "Log": "Logs",
  "function": "Function",
  "method": "Method",
  "path": "Path",
  "query": "Query",
  
  "Language": "Language",
  "user": "User",

  "reference": "Reference",
  "hasFullAccess": "Has Full Access",
  "Users": "Users",

  "SYSTEM_ADMINISTRATOR": "System Administrator",
  "DEFAULT_USER": "Default User",
  "STUDENT": "Aluno",

  "OwnerId": "User",

  "Client": "Clients",
  "ClientId": "Client",
  "cnpjCpf": "CNPJ/CPF",

  "ClassPlan": "Class Plans",
  "ClassPlanId": "Class Plan",

  "createdAtPeriodStart": "Created Period Start",
  "createdAtPeriodEnd": "Created Period End",

  "Question": "Questions",
  "QuestionId": "Question",
  "questionType": "Question Type",
  "questionTypeSingleAnswer": "Single Answer",
  "singleAnswer": "Single Answer",
  "questionTypeMultipleAnswer": "Multiple Answer",
  "question": "Question",
  "time": "Time",
  "experience": "Experience",
  "link": "Link",
  "answer": "Answer",
  "correctAnswer": "Correct Answer",

  "ClassPlanQuestion": "Perguntas do Plano",

  "Feedback": "Feedbacks",
  "FeedbackId": "Feedback",
  "rating": "Rating",
  "feedback": "Feedback",

  "Student": "Students",
  "StudentId": "Student",

  "Answer": "Answers",
  "AnswerId": "Answer",

  "ClassGroup": "Class Groups",
  "ClassGroupId": "Class Group",
  "startDate": "Start Date",
  "endDate": "End Date",

  "Trophy": "Trophies",
  "TrophyId": "Trophy",

  "StudentTrophy": "Student Trophies",
  "StudentTrophyId": "Student Trophy",

  "StudentAnswer": "Student Answers",
  "StudentAnswerId": "Student Answer",

  "startDatePeriodStart": "Start of Start Date Period",
  "startDatePeriodEnd": "End of Start Date Period",
  "endDatePeriodStart": "Start of End Date Period",
  "endDatePeriodEnd": "End of End Date Period",

  "404Error": "404",
  "pageNotFound": "Page not found",

  "media": "Media",

  "ModelValidations": "Validations",
  "rule": "Rule",
  "validationRuleQuestionType": "Validate Question Type",
  "validationRuleCpfCnpj": "Validate CNPJ/CPF",
  
  "validationRuleAnswersLengthError": "A question should have at least two answers",
  "validationRuleSingleAnswerError": "A question should have one correct answer",
  "validationRuleMultipleAnswerError": "A question should have at least one correct answer",

  "help_modelName_list": "The Model name in English (like on Sequelize documentation).<br>Examples: User, View, Language.",
  "help_modelName_form": "The Model name in English (like on Sequelize documentation).<br>Examples: User, View, Language.",

  "profile": "Profile",
  "logout": "Logout",
  
  "ViewId": "View",
  
  "OrganizationUser": "Organizations Users",
  "Organization": "Organization",
  "OrganizationId": "Organization",
  "MenuSection": "Menu Sections"
}
