{
  "OwnerId": null,
  "createdAt": "2020-08-28T12:10:48.933Z",
  "deletedAt": null,
  "id": "fc30b20c-aeb5-4790-a694-87b874cbaf98",
  "modelName": "User",
  "name": "User",
  "updatedAt": "2020-08-28T12:10:48.933Z"
}