{
  "ModelId": "12c32798-4211-4740-8189-9f878d8e6b9b",
  "OwnerId": "2cd40d9b-e4b9-41b2-9dc9-c2e9052f4cfc",
  "createdAt": "2021-01-30T01:05:35.518Z",
  "deletedAt": null,
  "id": "9dbd69bc-fd1d-46ec-8415-e9825c469246",
  "rule": null,
  "updatedAt": "2021-01-30T01:05:35.633Z"
}