{
  "ModelId": "12c32798-4211-4740-8189-9f878d8e6b9b",
  "OwnerId": "2cd40d9b-e4b9-41b2-9dc9-c2e9052f4cfc",
  "createdAt": "2021-01-30T01:05:35.522Z",
  "deletedAt": null,
  "id": "ff09799e-0cb6-48f9-bc68-4eaed1515303",
  "rule": null,
  "updatedAt": "2021-01-30T01:05:35.654Z"
}