{
  "OwnerId": "2cd40d9b-e4b9-41b2-9dc9-c2e9052f4cfc",
  "ViewId": "07ba578b-e244-43dc-be4e-c8244668a303",
  "class": "is-link",
  "createdAt": "2020-08-28T12:10:48.969Z",
  "deletedAt": null,
  "id": "069b8307-2f1f-409c-bbe6-038e5538fad2",
  "labelKey": "create",
  "order": "1",
  "params": null,
  "position": "top right",
  "slug": "/users_form",
  "type": "navigation",
  "updatedAt": "2021-04-10T13:05:29.445Z"
}