{
  "OwnerId": "2cd40d9b-e4b9-41b2-9dc9-c2e9052f4cfc",
  "ViewId": "72e232e5-c57a-4002-9021-228e76b11334",
  "class": "is-primary",
  "createdAt": "2020-12-06T19:54:00.621Z",
  "deletedAt": null,
  "id": "d22fca4a-a700-4d2c-831b-a4af1f4b1ae7",
  "labelKey": "save",
  "order": "1",
  "params": null,
  "position": "form end",
  "slug": "/dashboard",
  "type": "submit",
  "updatedAt": "2021-01-23T16:29:09.503Z"
}