{
  "ModelId": "99addf91-3b57-4cbd-bfc2-6f31d5af160d",
  "OwnerId": "2cd40d9b-e4b9-41b2-9dc9-c2e9052f4cfc",
  "createdAt": "2021-01-30T01:04:33.387Z",
  "default": null,
  "deletedAt": null,
  "id": "5aee05b2-a013-46fa-a52e-0d5cd89ff2d8",
  "length": null,
  "modelFieldType": "DataTypes.STRING",
  "name": "name",
  "selectOptions": null,
  "targetModel": null,
  "targetModelAlias": null,
  "type": "string",
  "updatedAt": "2021-01-30T01:04:33.463Z"
}