{
  "ChildViewId": null,
  "ModelFieldId": "4b5b16b4-cd07-4710-8999-ab597a9cae3b",
  "OwnerId": null,
  "ViewId": "809ccac3-9af6-48ce-a4e7-81cdf410a1e9",
  "breakAfter": null,
  "canOrderBy": null,
  "canUpdate": null,
  "class": "is-2",
  "createdAt": "2020-08-28T12:10:49.206Z",
  "deletedAt": null,
  "descriptionColumn": null,
  "filters": null,
  "findType": null,
  "format": null,
  "helperTextLabelKey": null,
  "id": "e8afd77e-3e42-4f93-a5a8-ff2bebd834e9",
  "include": null,
  "labelKey": "type",
  "mask": null,
  "order": "2",
  "placeholder": null,
  "required": null,
  "updatedAt": "2020-08-28T12:10:49.206Z",
  "valueColumn": null
}