{
  "ModelId": "6a70bba5-a02d-4943-b559-4cc5862d8e99",
  "OwnerId": null,
  "createdAt": "2020-08-28T12:10:49.076Z",
  "default": null,
  "deletedAt": null,
  "id": "aa5c8631-ef6c-492c-a2be-4310c720c019",
  "length": null,
  "modelFieldType": "DataTypes.STRING",
  "name": "order",
  "selectOptions": null,
  "targetModel": null,
  "targetModelAlias": null,
  "type": "string",
  "updatedAt": "2020-08-28T12:10:49.076Z"
}