{
  "ModelId": "6a70bba5-a02d-4943-b559-4cc5862d8e99",
  "OwnerId": null,
  "createdAt": "2020-08-28T12:10:49.076Z",
  "default": null,
  "deletedAt": null,
  "id": "da70982d-8219-4a07-b494-450b9af56e07",
  "length": null,
  "modelFieldType": "DataTypes.JSON",
  "name": "params",
  "selectOptions": null,
  "targetModel": null,
  "targetModelAlias": null,
  "type": "json",
  "updatedAt": "2020-08-28T12:10:49.076Z"
}