{
  "ChildViewId": null,
  "ModelFieldId": "b976099b-7ad1-4e42-977e-27b5c72e57c7",
  "OwnerId": "2cd40d9b-e4b9-41b2-9dc9-c2e9052f4cfc",
  "ViewId": "62590233-9f6e-4e61-8ead-56b01f6f095f",
  "breakAfter": false,
  "canOrderBy": false,
  "canUpdate": false,
  "class": "is-2",
  "createdAt": "2021-01-30T01:05:35.728Z",
  "deletedAt": null,
  "descriptionColumn": null,
  "filters": null,
  "findType": null,
  "format": null,
  "helperTextLabelKey": "",
  "id": "cc4fcfe2-0711-4450-9550-255cef780d7d",
  "include": null,
  "labelKey": "UserId",
  "mask": null,
  "order": "1",
  "placeholder": null,
  "required": false,
  "updatedAt": "2021-04-10T13:11:20.292Z",
  "valueColumn": null
}