{
  "ChildViewId": null,
  "ModelFieldId": "c41f68a9-4b23-4025-881f-607f9619b25c",
  "OwnerId": null,
  "ViewId": "7ef822ad-1760-4d40-b4af-63d79613e0a2",
  "breakAfter": null,
  "canOrderBy": null,
  "canUpdate": false,
  "class": "is-2",
  "createdAt": "2021-01-30T01:05:35.728Z",
  "deletedAt": null,
  "descriptionColumn": null,
  "filters": null,
  "findType": null,
  "format": null,
  "helperTextLabelKey": null,
  "id": "dcd33915-4d70-40bf-84ec-60d55c3e15bb",
  "include": null,
  "labelKey": "createdAt",
  "mask": null,
  "order": "2",
  "placeholder": null,
  "required": null,
  "updatedAt": "2021-01-30T01:05:35.728Z",
  "valueColumn": null
}