{
  "ChildViewId": null,
  "ModelFieldId": "102720cc-aa16-4d11-8314-fba96e2d3fda",
  "OwnerId": "2cd40d9b-e4b9-41b2-9dc9-c2e9052f4cfc",
  "ViewId": "84c403ef-e7b3-42d5-bce4-e6ad0d07f8ce",
  "breakAfter": null,
  "canOrderBy": null,
  "canUpdate": null,
  "class": null,
  "createdAt": "2020-08-28T04:40:47.640Z",
  "deletedAt": null,
  "descriptionColumn": null,
  "filters": null,
  "findType": null,
  "format": null,
  "helperTextLabelKey": null,
  "id": "35abf1b5-a566-4f73-8e3d-d5699d7abbb9",
  "include": null,
  "labelKey": "user",
  "mask": null,
  "order": "5",
  "placeholder": null,
  "required": null,
  "updatedAt": "2020-12-25T19:02:01.768Z",
  "valueColumn": null
}