{
  "ChildViewId": null,
  "ModelFieldId": "661fe871-bf94-42bc-b317-044291e12a81",
  "OwnerId": "2cd40d9b-e4b9-41b2-9dc9-c2e9052f4cfc",
  "ViewId": "84c403ef-e7b3-42d5-bce4-e6ad0d07f8ce",
  "breakAfter": null,
  "canOrderBy": null,
  "canUpdate": false,
  "class": "is-2",
  "createdAt": "2020-08-26T23:54:16.288Z",
  "deletedAt": null,
  "descriptionColumn": null,
  "filters": null,
  "findType": null,
  "format": null,
  "helperTextLabelKey": null,
  "id": "77b55227-4115-4a5d-8b1b-1a556fedab8a",
  "include": null,
  "labelKey": "createdAt",
  "mask": null,
  "order": "7",
  "placeholder": null,
  "required": null,
  "updatedAt": "2020-12-25T19:02:01.768Z",
  "valueColumn": null
}