{
  "ModelId": "fc30b20c-aeb5-4790-a694-87b874cbaf98",
  "OwnerId": "2cd40d9b-e4b9-41b2-9dc9-c2e9052f4cfc",
  "createdAt": "2020-08-28T12:10:48.944Z",
  "default": null,
  "deletedAt": null,
  "id": "8b2dbe77-914c-4d25-9316-12dd6ec14b82",
  "length": 255,
  "modelFieldType": "DataTypes.VIRTUAL",
  "name": "password",
  "selectOptions": null,
  "targetModel": null,
  "targetModelAlias": null,
  "type": "password",
  "updatedAt": "2021-04-10T13:06:41.818Z"
}