{
  "ModelId": "fc30b20c-aeb5-4790-a694-87b874cbaf98",
  "OwnerId": "2cd40d9b-e4b9-41b2-9dc9-c2e9052f4cfc",
  "createdAt": "2020-08-28T12:10:48.944Z",
  "default": null,
  "deletedAt": null,
  "id": "b1d7d434-ab78-49cc-b39c-c469ab66f7da",
  "length": null,
  "modelFieldType": "DataTypes.TEXT",
  "name": "photo",
  "selectOptions": null,
  "targetModel": null,
  "targetModelAlias": null,
  "type": "file",
  "updatedAt": "2021-04-10T13:06:41.815Z"
}