{
  "ModelId": "fc30b20c-aeb5-4790-a694-87b874cbaf98",
  "OwnerId": "2cd40d9b-e4b9-41b2-9dc9-c2e9052f4cfc",
  "createdAt": "2021-01-30T01:06:34.795Z",
  "default": null,
  "deletedAt": null,
  "id": "e5a6b61e-4690-4777-964a-64bc4ea8a4a3",
  "length": null,
  "modelFieldType": null,
  "name": "DefaultOrganizationId",
  "selectOptions": null,
  "targetModel": "Organization",
  "targetModelAlias": "DefaultOrganization",
  "type": "belongsTo",
  "updatedAt": "2021-04-10T13:06:41.830Z"
}
