{
  "ModelId": "fc30b20c-aeb5-4790-a694-87b874cbaf98",
  "OwnerId": "2cd40d9b-e4b9-41b2-9dc9-c2e9052f4cfc",
  "createdAt": "2020-08-28T12:10:48.944Z",
  "default": null,
  "deletedAt": null,
  "id": "e9b1b096-91fa-4427-b45f-b5a9921443bb",
  "length": null,
  "modelFieldType": null,
  "name": "RoleId",
  "selectOptions": null,
  "targetModel": "Role",
  "targetModelAlias": "Role",
  "type": "belongsTo",
  "updatedAt": "2021-04-10T13:06:41.829Z"
}