{
  "ChildViewId": null,
  "ModelFieldId": "6c655868-6385-415c-935e-dad1998daa28",
  "OwnerId": "2cd40d9b-e4b9-41b2-9dc9-c2e9052f4cfc",
  "ViewId": "8934a4e8-58f9-44ca-85ac-97843f634929",
  "breakAfter": false,
  "canOrderBy": false,
  "canUpdate": true,
  "class": "is-2",
  "createdAt": "2020-08-28T12:10:49.182Z",
  "deletedAt": null,
  "descriptionColumn": "",
  "filters": null,
  "findType": "",
  "format": "",
  "helperTextLabelKey": null,
  "id": "20714302-c78b-4050-a6e3-f3825180eee4",
  "include": null,
  "labelKey": "canOrderBy",
  "mask": "",
  "order": "4",
  "placeholder": "",
  "required": false,
  "updatedAt": "2020-12-25T21:35:36.670Z",
  "valueColumn": ""
}