{
  "ChildViewId": null,
  "ModelFieldId": "0aec6443-1e77-4cdf-9f73-1809061db246",
  "OwnerId": "2cd40d9b-e4b9-41b2-9dc9-c2e9052f4cfc",
  "ViewId": "8934a4e8-58f9-44ca-85ac-97843f634929",
  "breakAfter": false,
  "canOrderBy": false,
  "canUpdate": true,
  "class": "is-2",
  "createdAt": "2020-08-28T12:10:49.182Z",
  "deletedAt": null,
  "descriptionColumn": "Model.name,name",
  "filters": null,
  "findType": "",
  "format": "",
  "helperTextLabelKey": null,
  "id": "65befbfd-f77f-4321-b867-38da46b25299",
  "include": [
    "Model"
  ],
  "labelKey": "ModelFieldId",
  "mask": "",
  "order": "14",
  "placeholder": "",
  "required": false,
  "updatedAt": "2020-12-25T21:35:36.659Z",
  "valueColumn": ""
}