{
  "ChildViewId": null,
  "ModelFieldId": "abdc775c-916c-487b-a4ed-85693ff8eff0",
  "OwnerId": "2cd40d9b-e4b9-41b2-9dc9-c2e9052f4cfc",
  "ViewId": "8934a4e8-58f9-44ca-85ac-97843f634929",
  "breakAfter": false,
  "canOrderBy": false,
  "canUpdate": true,
  "class": "is-2",
  "createdAt": "2020-11-14T10:06:51.190Z",
  "deletedAt": null,
  "descriptionColumn": "",
  "filters": null,
  "findType": "",
  "format": "",
  "helperTextLabelKey": null,
  "id": "ce8b1838-4b25-44a1-8f1a-5519fbc2e1e8",
  "include": null,
  "labelKey": "placeholder",
  "mask": "",
  "order": "8",
  "placeholder": "",
  "required": false,
  "updatedAt": "2020-12-25T21:35:36.693Z",
  "valueColumn": ""
}