{
  "ChildViewId": null,
  "ModelFieldId": "81e0d858-e827-49f9-963c-8a4fdb27328a",
  "OwnerId": null,
  "ViewId": "a8a23a6e-a003-46f5-8b2f-9854b3583d75",
  "breakAfter": null,
  "canOrderBy": null,
  "canUpdate": false,
  "class": "is-2",
  "createdAt": "2020-08-29T14:10:34.770Z",
  "deletedAt": null,
  "descriptionColumn": null,
  "filters": null,
  "findType": null,
  "format": null,
  "helperTextLabelKey": null,
  "id": "d0e8ac70-e5ef-4130-bc51-2626bfb8b765",
  "include": null,
  "labelKey": "updatedAt",
  "mask": null,
  "order": "5",
  "placeholder": null,
  "required": null,
  "updatedAt": "2020-08-29T14:24:22.634Z",
  "valueColumn": null
}