{
  "ModelId": "72c405ec-6078-4753-bf41-c6b774131ca8",
  "OwnerId": "2cd40d9b-e4b9-41b2-9dc9-c2e9052f4cfc",
  "createdAt": "2020-08-28T12:10:49.024Z",
  "default": null,
  "deletedAt": null,
  "id": "d102d1b1-4042-4e79-b043-4d5e025f002d",
  "length": 10,
  "modelFieldType": "DataTypes.INTEGER",
  "name": "length",
  "selectOptions": null,
  "targetModel": null,
  "targetModelAlias": null,
  "type": "integer",
  "updatedAt": "2020-12-25T21:54:54.050Z"
}