{
  "ModelId": "99addf91-3b57-4cbd-bfc2-6f31d5af160d",
  "OwnerId": "2cd40d9b-e4b9-41b2-9dc9-c2e9052f4cfc",
  "createdAt": "2021-01-30T01:04:33.421Z",
  "deletedAt": null,
  "id": "8e61366a-8fd0-404d-bb1e-9992149c0e5e",
  "rule": null,
  "updatedAt": "2021-01-30T01:04:33.489Z"
}