{
  "MenuSectionId": null,
  "ModelId": "0aae525b-862c-4079-8f53-150d0fb791e2",
  "OwnerId": null,
  "createdAt": "2020-11-17T23:11:43.785Z",
  "deletedAt": null,
  "filters": null,
  "id": "a2e3e138-7e12-46a5-9f3f-cd8046ed31cc",
  "include": null,
  "key": "form-model_validation",
  "labelKey": "ModelValidation",
  "showOnMenu": false,
  "slug": "/model_validation_form",
  "type": "FormView",
  "updatedAt": "2020-11-17T23:11:43.785Z"
}