{
  "MenuSectionId": null,
  "ModelId": "0aae525b-862c-4079-8f53-150d0fb791e2",
  "OwnerId": "2cd40d9b-e4b9-41b2-9dc9-c2e9052f4cfc",
  "createdAt": "2020-11-17T23:18:55.479Z",
  "deletedAt": null,
  "filters": null,
  "id": "b57ad423-68d0-4ee2-9813-fbd9cee0b2be",
  "include": null,
  "key": "child_form-modelValidation",
  "labelKey": "ModelValidations",
  "showOnMenu": false,
  "slug": "",
  "type": "FormView",
  "updatedAt": "2020-11-17T23:18:55.479Z"
}