{
  "ChildViewId": null,
  "ModelFieldId": "bc468fd3-6706-4fd5-b6a5-c4cae6f6cfb5",
  "OwnerId": "2cd40d9b-e4b9-41b2-9dc9-c2e9052f4cfc",
  "ViewId": "07ba578b-e244-43dc-be4e-c8244668a303",
  "breakAfter": false,
  "canOrderBy": false,
  "canUpdate": false,
  "class": null,
  "createdAt": "2020-11-11T12:21:12.381Z",
  "deletedAt": null,
  "descriptionColumn": null,
  "filters": null,
  "findType": null,
  "format": null,
  "helperTextLabelKey": "",
  "id": "c10540df-f98c-4a73-ba8d-295ff41b8352",
  "include": null,
  "labelKey": "OwnerId",
  "mask": null,
  "order": "5",
  "placeholder": "Selecione",
  "required": false,
  "updatedAt": "2021-04-10T13:05:29.442Z",
  "valueColumn": null
}