{
  "ChildViewId": "9cb74854-e757-4d4f-8925-9908db897ba3",
  "ModelFieldId": "f6f2c905-7b70-4646-80a0-662c56d4b636",
  "OwnerId": "2cd40d9b-e4b9-41b2-9dc9-c2e9052f4cfc",
  "ViewId": "28e36655-1225-45dd-8060-4a4f455a6fb4",
  "breakAfter": false,
  "canOrderBy": false,
  "canUpdate": false,
  "class": null,
  "createdAt": "2020-08-28T12:10:49.132Z",
  "deletedAt": null,
  "descriptionColumn": null,
  "filters": null,
  "findType": null,
  "format": null,
  "helperTextLabelKey": "",
  "id": "5f864e06-1ccc-422e-b457-c9797aa33dbd",
  "include": null,
  "labelKey": "ModelFields",
  "mask": null,
  "order": "2",
  "placeholder": null,
  "required": false,
  "updatedAt": "2020-12-25T22:09:15.168Z",
  "valueColumn": null
}