{
  "ModelId": "d0ff17b6-1af4-407f-87ab-fa49709aca0e",
  "OwnerId": null,
  "createdAt": "2020-08-26T23:54:16.149Z",
  "default": null,
  "deletedAt": null,
  "id": "5302167c-a53e-4db6-b2df-92b383d94092",
  "length": null,
  "modelFieldType": "DataTypes.INTEGER",
  "name": "statusCode",
  "selectOptions": null,
  "targetModel": null,
  "targetModelAlias": null,
  "type": "integer",
  "updatedAt": "2020-08-28T04:36:54.653Z"
}