{
  "ModelId": "d0ff17b6-1af4-407f-87ab-fa49709aca0e",
  "OwnerId": null,
  "createdAt": "2020-08-26T23:54:16.135Z",
  "default": null,
  "deletedAt": null,
  "id": "6128d434-ee25-4a92-8420-f9c8173e0d7d",
  "length": null,
  "modelFieldType": "DataTypes.STRING",
  "name": "function",
  "selectOptions": null,
  "targetModel": null,
  "targetModelAlias": null,
  "type": "string",
  "updatedAt": "2020-08-28T04:36:54.652Z"
}