{
  "ModelId": "d0ff17b6-1af4-407f-87ab-fa49709aca0e",
  "OwnerId": null,
  "createdAt": "2020-08-26T23:54:16.158Z",
  "default": null,
  "deletedAt": null,
  "id": "ee9639e1-ae28-4067-b20a-0d1a817c2adc",
  "length": null,
  "modelFieldType": "DataTypes.DECIMAL(12, 2)",
  "name": "timing",
  "selectOptions": null,
  "targetModel": null,
  "targetModelAlias": null,
  "type": "decimal",
  "updatedAt": "2020-08-28T04:36:54.683Z"
}