{
  "OwnerId": "2cd40d9b-e4b9-41b2-9dc9-c2e9052f4cfc",
  "ViewId": "e1514e4c-9493-48a8-99fc-bac07d019187",
  "class": "is-primary",
  "createdAt": "2020-11-14T22:13:53.967Z",
  "deletedAt": null,
  "id": "d6ab9347-940b-4e6c-a2de-c8b11f5c5ed8",
  "labelKey": "save",
  "order": "1",
  "params": null,
  "position": "form end",
  "slug": "/view_permission",
  "type": "submit",
  "updatedAt": "2021-01-23T15:43:12.207Z"
}