{
  "ChildViewId": null,
  "ModelFieldId": "ff509dfe-7498-4dff-a817-d7b6f0cca79f",
  "OwnerId": "2cd40d9b-e4b9-41b2-9dc9-c2e9052f4cfc",
  "ViewId": "e1514e4c-9493-48a8-99fc-bac07d019187",
  "breakAfter": false,
  "canOrderBy": false,
  "canUpdate": false,
  "class": "is-2",
  "createdAt": "2020-11-14T22:13:53.972Z",
  "deletedAt": null,
  "descriptionColumn": "labelKey",
  "filters": null,
  "findType": null,
  "format": null,
  "helperTextLabelKey": "",
  "id": "2e1f26ea-3e6b-4242-8f7c-7de2a0cf27f4",
  "include": null,
  "labelKey": "ViewId",
  "mask": null,
  "order": "1",
  "placeholder": null,
  "required": false,
  "updatedAt": "2021-01-23T15:43:12.194Z",
  "valueColumn": null
}