{
  "ChildViewId": null,
  "ModelFieldId": "c1304049-4822-4490-af06-043cb6169c74",
  "OwnerId": null,
  "ViewId": "637e72f8-9426-4796-bfa1-b864faec1aed",
  "breakAfter": null,
  "canOrderBy": null,
  "canUpdate": null,
  "class": "is-6",
  "createdAt": "2020-08-28T12:10:49.168Z",
  "deletedAt": null,
  "descriptionColumn": null,
  "filters": null,
  "findType": null,
  "format": null,
  "helperTextLabelKey": null,
  "id": "68b0a6b5-bade-4859-946f-e26d808cfb77",
  "include": null,
  "labelKey": "filters",
  "mask": null,
  "order": "6",
  "placeholder": null,
  "required": null,
  "updatedAt": "2020-08-28T12:10:49.168Z",
  "valueColumn": null
}