{
  "ChildViewId": null,
  "ModelFieldId": "1afcf137-9055-493b-90e2-526121ba3d96",
  "OwnerId": null,
  "ViewId": "d16fb811-afe8-4d56-a007-274a9bd21445",
  "breakAfter": null,
  "canOrderBy": null,
  "canUpdate": null,
  "class": null,
  "createdAt": "2020-08-28T12:10:49.156Z",
  "deletedAt": null,
  "descriptionColumn": null,
  "filters": null,
  "findType": null,
  "format": null,
  "helperTextLabelKey": null,
  "id": "9bcea515-9891-42da-8a53-9d21bd01a385",
  "include": null,
  "labelKey": "slug",
  "mask": null,
  "order": "4",
  "placeholder": null,
  "required": null,
  "updatedAt": "2020-08-28T12:10:49.156Z",
  "valueColumn": null
}