{
  "ModelId": "12c32798-4211-4740-8189-9f878d8e6b9b",
  "OwnerId": "2cd40d9b-e4b9-41b2-9dc9-c2e9052f4cfc",
  "createdAt": "2021-01-30T01:05:35.475Z",
  "default": null,
  "deletedAt": null,
  "id": "b976099b-7ad1-4e42-977e-27b5c72e57c7",
  "length": null,
  "modelFieldType": null,
  "name": "UserId",
  "selectOptions": null,
  "targetModel": "User",
  "targetModelAlias": "User",
  "type": "belongsTo",
  "updatedAt": "2021-01-30T01:05:35.595Z"
}