{
  "ModelId": "805d3256-cfbc-4df2-be79-1177e6eabeb1",
  "OwnerId": "2cd40d9b-e4b9-41b2-9dc9-c2e9052f4cfc",
  "createdAt": "2020-11-19T09:15:58.387Z",
  "deletedAt": null,
  "id": "64fd6e95-3e66-4ec5-9a80-bcf488d05460",
  "rule": null,
  "updatedAt": "2020-12-03T21:47:21.403Z"
}