{
  "OwnerId": "2cd40d9b-e4b9-41b2-9dc9-c2e9052f4cfc",
  "ViewId": "dddfaee7-4c57-4f72-aa3b-3a629e247b41",
  "class": "is-primary",
  "createdAt": "2021-01-30T01:04:33.477Z",
  "deletedAt": null,
  "id": "60b7f148-7298-4ad2-a326-bc8588333559",
  "labelKey": "create",
  "order": "1",
  "params": null,
  "position": "top right",
  "slug": "/organization_form",
  "type": "navigation",
  "updatedAt": "2021-01-30T01:24:58.787Z"
}