{
  "ModelId": "87d8172b-58c9-468a-9450-923eed45806d",
  "OwnerId": null,
  "createdAt": "2020-08-28T12:10:49.064Z",
  "default": null,
  "deletedAt": null,
  "id": "d4f439d4-69b7-4895-8b22-e4ca715fad1a",
  "length": null,
  "modelFieldType": "DataTypes.JSON",
  "name": "params",
  "selectOptions": null,
  "targetModel": null,
  "targetModelAlias": null,
  "type": "json",
  "updatedAt": "2020-08-28T12:10:49.064Z"
}