{
  "ModelId": "87d8172b-58c9-468a-9450-923eed45806d",
  "OwnerId": null,
  "createdAt": "2020-08-28T12:10:49.064Z",
  "default": null,
  "deletedAt": null,
  "id": "e327d548-36be-4469-baa2-1ae3b88200eb",
  "length": 255,
  "modelFieldType": "DataTypes.STRING",
  "name": "type",
  "selectOptions": null,
  "targetModel": null,
  "targetModelAlias": null,
  "type": "string",
  "updatedAt": "2020-08-28T12:10:49.064Z"
}