{
  "MenuSectionId": "8dcd077b-b723-4b33-8c80-48702c9afdf4",
  "ModelId": "405cf410-c096-4b15-b7a8-97a0ed9bae72",
  "OwnerId": null,
  "createdAt": "2020-11-14T22:13:53.961Z",
  "deletedAt": null,
  "filters": null,
  "id": "e1514e4c-9493-48a8-99fc-bac07d019187",
  "include": null,
  "key": "form-view_permission",
  "labelKey": "ViewPermission",
  "showOnMenu": false,
  "slug": "/view_permission_form",
  "type": "FormView",
  "updatedAt": "2021-01-23T15:43:12.162Z"
}